0.62 0.5064 0.4075 0.3174 0.2676 
0.9467 0.9475 0.9481 0.9481 0.9503 
-0.5871 -0.4789 -0.3876 -0.2977 -0.2569 
0.0055479726 0.0060973725 0.0064573359 0.0067054353 0.0068131866 
0.0022777084 0.0022610147 0.0022484038 0.0022484038 0.0022014758 
0.0057241313 0.0062074745 0.0065183059 0.0067504619 0.0068337486 
